%YAML 1.1
%TAG !u! tag:unity3d.com,2011:
--- !u!74 &7400000
AnimationClip:
  m_ObjectHideFlags: 0
  m_CorrespondingSourceObject: {fileID: 0}
  m_PrefabInstance: {fileID: 0}
  m_PrefabAsset: {fileID: 0}
  m_Name: run_up
  serializedVersion: 6
  m_Legacy: 0
  m_Compressed: 0
  m_UseHighQualityCurve: 1
  m_RotationCurves: []
  m_CompressedRotationCurves: []
  m_EulerCurves: []
  m_PositionCurves: []
  m_ScaleCurves: []
  m_FloatCurves: []
  m_PPtrCurves:
  - curve:
    - time: 0
      value: {fileID: -2101175276847748840, guid: a864301aacc8b1d4c9197f7d471534de, type: 3}
    - time: 0.041666668
      value: {fileID: 3396987343971830283, guid: a864301aacc8b1d4c9197f7d471534de, type: 3}
    - time: 0.083333336
      value: {fileID: 4026534355312065940, guid: a864301aacc8b1d4c9197f7d471534de, type: 3}
    - time: 0.125
      value: {fileID: 3746123119762467834, guid: a864301aacc8b1d4c9197f7d471534de, type: 3}
    - time: 0.16666667
      value: {fileID: -7395723654248013618, guid: a864301aacc8b1d4c9197f7d471534de, type: 3}
    - time: 0.20833333
      value: {fileID: 6925657076329794216, guid: a864301aacc8b1d4c9197f7d471534de, type: 3}
    - time: 0.25
      value: {fileID: -485735562940750571, guid: a864301aacc8b1d4c9197f7d471534de, type: 3}
    - time: 0.29166666
      value: {fileID: 2286054313573989648, guid: a864301aacc8b1d4c9197f7d471534de, type: 3}
    - time: 0.33333334
      value: {fileID: 7339201043945916432, guid: a864301aacc8b1d4c9197f7d471534de, type: 3}
    - time: 0.375
      value: {fileID: 5594267542839037807, guid: a864301aacc8b1d4c9197f7d471534de, type: 3}
    - time: 0.41666666
      value: {fileID: 861721075154642115, guid: a864301aacc8b1d4c9197f7d471534de, type: 3}
    - time: 0.45833334
      value: {fileID: -6410189456973566414, guid: a864301aacc8b1d4c9197f7d471534de, type: 3}
    - time: 0.5
      value: {fileID: -5338338011432171499, guid: a864301aacc8b1d4c9197f7d471534de, type: 3}
    - time: 0.5416667
      value: {fileID: 8452436285455288834, guid: a864301aacc8b1d4c9197f7d471534de, type: 3}
    - time: 0.5833333
      value: {fileID: 5109493700870709909, guid: a864301aacc8b1d4c9197f7d471534de, type: 3}
    - time: 0.625
      value: {fileID: -6492941617391522853, guid: a864301aacc8b1d4c9197f7d471534de, type: 3}
    - time: 0.6666667
      value: {fileID: 1446640627804436947, guid: a864301aacc8b1d4c9197f7d471534de, type: 3}
    - time: 0.7083333
      value: {fileID: 6857149512527897854, guid: a864301aacc8b1d4c9197f7d471534de, type: 3}
    - time: 0.75
      value: {fileID: 941358232597802629, guid: a864301aacc8b1d4c9197f7d471534de, type: 3}
    - time: 0.7916667
      value: {fileID: 2511468293593131020, guid: a864301aacc8b1d4c9197f7d471534de, type: 3}
    - time: 0.8333333
      value: {fileID: 8652073380975798884, guid: a864301aacc8b1d4c9197f7d471534de, type: 3}
    - time: 0.875
      value: {fileID: 3736004992414932640, guid: a864301aacc8b1d4c9197f7d471534de, type: 3}
    - time: 0.9166667
      value: {fileID: -8132298740076087291, guid: a864301aacc8b1d4c9197f7d471534de, type: 3}
    - time: 0.9583333
      value: {fileID: -3429866199727438939, guid: a864301aacc8b1d4c9197f7d471534de, type: 3}
    attribute: m_Sprite
    path: 
    classID: 212
    script: {fileID: 0}
  m_SampleRate: 24
  m_WrapMode: 0
  m_Bounds:
    m_Center: {x: 0, y: 0, z: 0}
    m_Extent: {x: 0, y: 0, z: 0}
  m_ClipBindingConstant:
    genericBindings:
    - serializedVersion: 2
      path: 0
      attribute: 0
      script: {fileID: 0}
      typeID: 212
      customType: 23
      isPPtrCurve: 1
    pptrCurveMapping:
    - {fileID: -2101175276847748840, guid: a864301aacc8b1d4c9197f7d471534de, type: 3}
    - {fileID: 3396987343971830283, guid: a864301aacc8b1d4c9197f7d471534de, type: 3}
    - {fileID: 4026534355312065940, guid: a864301aacc8b1d4c9197f7d471534de, type: 3}
    - {fileID: 3746123119762467834, guid: a864301aacc8b1d4c9197f7d471534de, type: 3}
    - {fileID: -7395723654248013618, guid: a864301aacc8b1d4c9197f7d471534de, type: 3}
    - {fileID: 6925657076329794216, guid: a864301aacc8b1d4c9197f7d471534de, type: 3}
    - {fileID: -485735562940750571, guid: a864301aacc8b1d4c9197f7d471534de, type: 3}
    - {fileID: 2286054313573989648, guid: a864301aacc8b1d4c9197f7d471534de, type: 3}
    - {fileID: 7339201043945916432, guid: a864301aacc8b1d4c9197f7d471534de, type: 3}
    - {fileID: 5594267542839037807, guid: a864301aacc8b1d4c9197f7d471534de, type: 3}
    - {fileID: 861721075154642115, guid: a864301aacc8b1d4c9197f7d471534de, type: 3}
    - {fileID: -6410189456973566414, guid: a864301aacc8b1d4c9197f7d471534de, type: 3}
    - {fileID: -5338338011432171499, guid: a864301aacc8b1d4c9197f7d471534de, type: 3}
    - {fileID: 8452436285455288834, guid: a864301aacc8b1d4c9197f7d471534de, type: 3}
    - {fileID: 5109493700870709909, guid: a864301aacc8b1d4c9197f7d471534de, type: 3}
    - {fileID: -6492941617391522853, guid: a864301aacc8b1d4c9197f7d471534de, type: 3}
    - {fileID: 1446640627804436947, guid: a864301aacc8b1d4c9197f7d471534de, type: 3}
    - {fileID: 6857149512527897854, guid: a864301aacc8b1d4c9197f7d471534de, type: 3}
    - {fileID: 941358232597802629, guid: a864301aacc8b1d4c9197f7d471534de, type: 3}
    - {fileID: 2511468293593131020, guid: a864301aacc8b1d4c9197f7d471534de, type: 3}
    - {fileID: 8652073380975798884, guid: a864301aacc8b1d4c9197f7d471534de, type: 3}
    - {fileID: 3736004992414932640, guid: a864301aacc8b1d4c9197f7d471534de, type: 3}
    - {fileID: -8132298740076087291, guid: a864301aacc8b1d4c9197f7d471534de, type: 3}
    - {fileID: -3429866199727438939, guid: a864301aacc8b1d4c9197f7d471534de, type: 3}
  m_AnimationClipSettings:
    serializedVersion: 2
    m_AdditiveReferencePoseClip: {fileID: 0}
    m_AdditiveReferencePoseTime: 0
    m_StartTime: 0
    m_StopTime: 1
    m_OrientationOffsetY: 0
    m_Level: 0
    m_CycleOffset: 0
    m_HasAdditiveReferencePose: 0
    m_LoopTime: 1
    m_LoopBlend: 0
    m_LoopBlendOrientation: 0
    m_LoopBlendPositionY: 0
    m_LoopBlendPositionXZ: 0
    m_KeepOriginalOrientation: 0
    m_KeepOriginalPositionY: 1
    m_KeepOriginalPositionXZ: 0
    m_HeightFromFeet: 0
    m_Mirror: 0
  m_EditorCurves: []
  m_EulerEditorCurves: []
  m_HasGenericRootTransform: 0
  m_HasMotionFloatCurves: 0
  m_Events:
  - time: 0.41666666
    functionName: 
    data: 
    objectReferenceParameter: {fileID: 0}
    floatParameter: 0
    intParameter: 0
    messageOptions: 0
  - time: 0.41666666
    functionName: 
    data: 
    objectReferenceParameter: {fileID: 0}
    floatParameter: 0
    intParameter: 0
    messageOptions: 0
